{
    "telemetry.enableTelemetry": false, //Turn off telemetry data being sent out
    "editor.trimAutoWhitespace": false, //Don't remove whitespace on empty lines
    "security.workspace.trust.untrustedFiles": "open",
    "extensions.ignoreRecommendations": true,
    "editor.smoothScrolling": true,
    "editor.cursorSurroundingLines": 4,
    "editor.stickyTabStops": true,
    "editor.showFoldingControls": "always",
    "editor.cursorBlinking": "smooth",
    "editor.cursorWidth": 3,
    "editor.hover.enabled": false,
    "editor.quickSuggestionsDelay": 1200,
    "update.enableWindowsBackgroundUpdates": false,
    "update.mode": "none",
    "csharp.referencesCodeLens.enabled": true,
    "omnisharp.autoStart": false,
    "omnisharp.disableMSBuildDiagnosticWarning": true,
    "redhat.telemetry.enabled": false,
    "workbench.colorTheme": "MyMonokai",
}